<?xml version="1.0"?>
<svg xmlns="http://www.w3.org/2000/svg" xmlns:xlink="http://www.w3.org/1999/xlink" version="1.1" id="Layer_1" x="0px" y="0px" viewBox="0 0 512 512" style="enable-background:new 0 0 512 512;" xml:space="preserve" width="512px" height="512px" class=""><g><circle style="fill:#D6D2D0" cx="256" cy="256" r="256" data-original="#FF7F4F" class="" data-old_color="#D7D3D1"/><g>
	<path style="fill:#9C8D8C" d="M390.725,150.297L151.342,418.578l93.153,93.153c3.817,0.169,7.649,0.269,11.507,0.269   c136.252,0,247.625-106.449,255.533-240.716L390.725,150.297z" data-original="#F2542F" class="" data-old_color="#9A8B89"/>
	<polygon style="fill:#9C8D8C" points="312.889,111.595 365.266,163.973 192.283,163.973 204.859,119.811  " data-original="#F2542F" class="" data-old_color="#9A8B89"/>
</g><path style="fill:#5EAAF6" d="M171.529,426.667h168.943c16.186,0,29.306-13.121,29.306-29.306V170.667H142.222V397.36  C142.222,413.546,155.343,426.667,171.529,426.667z" data-original="#386895" class="active-path" data-old_color="#5DAAF6"/><path style="fill:#0D6FD3" d="M255.426,170.667v256h85.045c16.186,0,29.306-13.121,29.306-29.306V170.667H255.426z" data-original="#273B7A" class="" data-old_color="#0D70D6"/><path style="fill:#5EAAF6" d="M291.771,181.01h-71.542c-17.348,0-31.461-14.114-31.461-31.461v-14.653  c0-17.348,14.114-31.461,31.461-31.461h71.542c17.348,0,31.461,14.114,31.461,31.461v14.653  C323.232,166.896,309.119,181.01,291.771,181.01z M220.229,124.121c-5.941,0-10.774,4.834-10.774,10.774v14.653  c0,5.941,4.834,10.774,10.774,10.774h71.542c5.941,0,10.774-4.834,10.774-10.774v-14.653c0-5.941-4.834-10.774-10.774-10.774  H220.229z" data-original="#386895" class="active-path" data-old_color="#5DAAF6"/><g>
	<path style="fill:#0D6FD3" d="M291.771,103.434h-36.345v20.687h36.345c5.941,0,10.774,4.834,10.774,10.774v14.653   c0,5.941-4.834,10.774-10.774,10.774h-36.345v20.687h36.345c17.348,0,31.461-14.114,31.461-31.461v-14.653   C323.232,117.548,309.119,103.434,291.771,103.434z" data-original="#273B7A" class="" data-old_color="#0D70D6"/>
	<path style="fill:#0D6FD3" d="M113.778,199.111h284.444V168.8c0-14.677-11.898-26.577-26.577-26.577h-231.29   c-14.679,0-26.577,11.898-26.577,26.577V199.111z" data-original="#273B7A" class="" data-old_color="#0D70D6"/>
</g><path style="fill:#1E90FF" d="M398.222,168.8c0-14.677-11.898-26.577-26.577-26.577H255.426v56.889h142.796V168.8z" data-original="#121149" class="" data-old_color="#B7290B"/><rect x="188.768" y="229.279" style="fill:#0D6FD3" width="20.687" height="156.875" data-original="#273B7A" class="" data-old_color="#0D70D6"/><rect x="302.545" y="229.279" style="fill:#1E90FF" width="20.687" height="156.875" data-original="#121149" class="" data-old_color="#B7290B"/><rect x="245.657" y="229.279" style="fill:#0D6FD3" width="20.687" height="156.875" data-original="#273B7A" class="" data-old_color="#0D70D6"/><rect x="255.431" y="229.279" style="fill:#1E90FF" width="10.917" height="156.875" data-original="#121149" class="" data-old_color="#B7290B"/></g> </svg>
